DSCI 522 Milestone 1
…
Rows: 320 Columns: 6
── Column specification ────────────────────────────────────────────────────────
Delimiter: ","
chr  (3): prod_type, prod_process, source
dbl  (2): n_hens, n_eggs
date (1): observed_month

ℹ Use `spec()` to retrieve the full column specification for this data.
ℹ Specify the column types or set `show_col_types = FALSE` to quiet this message.

egg_prod

# A tibble: 320 × 6
   observed_month prod_type     prod_process   n_hens     n_eggs source         
   <date>         <chr>         <chr>           <dbl>      <dbl> <chr>          
 1 2016-07-31     hatching eggs all          57975000 1147000000 ChicEggs-09-23…
 2 2016-08-31     hatching eggs all          57595000 1142700000 ChicEggs-10-21…
 3 2016-09-30     hatching eggs all          57161000 1093300000 ChicEggs-11-22…
 4 2016-10-31     hatching eggs all          56857000 1126700000 ChicEggs-12-23…
 5 2016-11-30     hatching eggs all          57116000 1096600000 ChicEggs-01-24…
 6 2016-12-31     hatching eggs all          57750000 1132900000 ChicEggs-02-28…
 7 2017-01-31     hatching eggs all          57991000 1123400000 ChicEggs-03-21…
 8 2017-02-28     hatching eggs all          58286000 1014500000 ChicEggs-04-21…
 9 2017-03-31     hatching eggs all          58735000 1128500000 ChicEggs-05-22…
10 2017-04-30     hatching eggs all          59072000 1097200000 ChicEggs-06-23…
# ℹ 310 more rows
…
